%!PS-Adobe-3.0
%%Creator: PCBNEW
%%CreationDate: Mon Apr 26 14:13:08 2021
%%Title: /home/uli/Documents/KiCad/Boards/VGA/gerber/VGA-NPTH-drl_map.ps
%%Pages: 1
%%PageOrder: Ascend
%%BoundingBox: 0 0 596 842
%%DocumentMedia: A4 595 842 0 () ()
%%Orientation: Landscape
%%EndComments
%%BeginProlog
/line { newpath moveto lineto stroke } bind def
/cir0 { newpath 0 360 arc stroke } bind def
/cir1 { newpath 0 360 arc gsave fill grestore stroke } bind def
/cir2 { newpath 0 360 arc gsave fill grestore stroke } bind def
/arc0 { newpath arc stroke } bind def
/arc1 { newpath 4 index 4 index moveto arc closepath gsave fill
    grestore stroke } bind def
/arc2 { newpath 4 index 4 index moveto arc closepath gsave fill
    grestore stroke } bind def
/poly0 { stroke } bind def
/poly1 { closepath gsave fill grestore stroke } bind def
/poly2 { closepath gsave fill grestore stroke } bind def
/rect0 { rectstroke } bind def
/rect1 { rectfill } bind def
/rect2 { rectfill } bind def
/linemode0 { 0 setlinecap 0 setlinejoin 0 setlinewidth } bind def
/linemode1 { 1 setlinecap 1 setlinejoin } bind def
/dashedline { [200] 100 setdash } bind def
/solidline { [] 0 setdash } bind def
/phantomshow { moveto
    /KicadFont findfont 0.000001 scalefont setfont
    show } bind def
/textshow { gsave
    findfont exch scalefont setfont concat 1 scale 0 0 moveto show
    } bind def
/reencodefont {
  findfont dup length dict begin
  { 1 index /FID ne
    { def }
    { pop pop } ifelse
  } forall
  /Encoding ISOLatin1Encoding def
  currentdict
  end } bind def
/KicadFont /Helvetica reencodefont definefont pop
/KicadFont-Bold /Helvetica-Bold reencodefont definefont pop
/KicadFont-Oblique /Helvetica-Oblique reencodefont definefont pop
/KicadFont-BoldOblique /Helvetica-BoldOblique reencodefont definefont pop
%%EndProlog
%%Page: 1 1
%%BeginPageSetup
gsave
0.0072 0.0072 scale
linemode1
82680 0 translate 90 rotate
150 setlinewidth
%%EndPageSetup
0 0 0 setrgbcolor
59.0551 setlinewidth
36715 54876 2250 -90 -0 arc0
0 0 0 setrgbcolor
36715 49626 3000 90 180 arc0
0 0 0 setrgbcolor
80215 54876 2250 180 270 arc0
0 0 0 setrgbcolor
newpath
33715 42126 moveto
33715 49626 lineto
stroke
0 0 0 setrgbcolor
80215 49626 3000 -0 90 arc0
0 0 0 setrgbcolor
newpath
83215 42126 moveto
83215 49626 lineto
stroke
0 0 0 setrgbcolor
41965 71376 3000 90 180 arc0
0 0 0 setrgbcolor
74965 71376 3000 -0 90 arc0
0 0 0 setrgbcolor
82465 42126 750 -90 -0 arc0
0 0 0 setrgbcolor
34465 42126 750 180 270 arc0
0 0 0 setrgbcolor
newpath
38965 71376 moveto
38965 54876 lineto
stroke
0 0 0 setrgbcolor
newpath
74965 74376 moveto
41965 74376 lineto
stroke
0 0 0 setrgbcolor
newpath
77965 54876 moveto
77965 71376 lineto
stroke
0 0 0 setrgbcolor
newpath
34465 41376 moveto
82465 41376 lineto
stroke
78.7394 setlinewidth
118.11 setlinewidth
0 0 0 setrgbcolor
0 0 0 setrgbcolor
newpath
34813.1 39513 moveto
34813.1 40694.1 lineto
35094.4 40694.1 lineto
35263.1 40637.8 lineto
35375.6 40525.3 lineto
35431.8 40412.8 lineto
35488.1 40187.9 lineto
35488.1 40019.1 lineto
35431.8 39794.2 lineto
35375.6 39681.7 lineto
35263.1 39569.2 lineto
35094.4 39513 lineto
34813.1 39513 lineto
stroke
newpath
35994.2 39513 moveto
35994.2 40300.4 lineto
stroke
newpath
35994.2 40075.4 moveto
36050.5 40187.9 lineto
36106.7 40244.1 lineto
36219.2 40300.4 lineto
36331.7 40300.4 lineto
stroke
newpath
36725.4 39513 moveto
36725.4 40300.4 lineto
stroke
newpath
36725.4 40694.1 moveto
36669.2 40637.8 lineto
36725.4 40581.6 lineto
36781.6 40637.8 lineto
36725.4 40694.1 lineto
36725.4 40581.6 lineto
stroke
newpath
37456.6 39513 moveto
37344.1 39569.2 lineto
37287.8 39681.7 lineto
37287.8 40694.1 lineto
stroke
newpath
38075.2 39513 moveto
37962.7 39569.2 lineto
37906.5 39681.7 lineto
37906.5 40694.1 lineto
stroke
newpath
39425.1 39513 moveto
39425.1 40694.1 lineto
39818.8 39850.4 lineto
40212.5 40694.1 lineto
40212.5 39513 lineto
stroke
newpath
41281.1 39513 moveto
41281.1 40131.6 lineto
41224.8 40244.1 lineto
41112.4 40300.4 lineto
40887.4 40300.4 lineto
40774.9 40244.1 lineto
stroke
newpath
41281.1 39569.2 moveto
41168.6 39513 lineto
40887.4 39513 lineto
40774.9 39569.2 lineto
40718.7 39681.7 lineto
40718.7 39794.2 lineto
40774.9 39906.7 lineto
40887.4 39962.9 lineto
41168.6 39962.9 lineto
41281.1 40019.1 lineto
stroke
newpath
41843.5 40300.4 moveto
41843.5 39119.2 lineto
stroke
newpath
41843.5 40244.1 moveto
41956 40300.4 lineto
42181 40300.4 lineto
42293.5 40244.1 lineto
42349.7 40187.9 lineto
42405.9 40075.4 lineto
42405.9 39737.9 lineto
42349.7 39625.4 lineto
42293.5 39569.2 lineto
42181 39513 lineto
41956 39513 lineto
41843.5 39569.2 lineto
stroke
newpath
42912.1 39625.4 moveto
42968.4 39569.2 lineto
42912.1 39513 lineto
42855.9 39569.2 lineto
42912.1 39625.4 lineto
42912.1 39513 lineto
stroke
newpath
42912.1 40244.1 moveto
42968.4 40187.9 lineto
42912.1 40131.6 lineto
42855.9 40187.9 lineto
42912.1 40244.1 lineto
42912.1 40131.6 lineto
stroke
showpage
grestore
%%EOF
