G04 #@! TF.GenerationSoftware,KiCad,Pcbnew,5.1.10-88a1d61d58~88~ubuntu20.04.1*
G04 #@! TF.CreationDate,2021-04-26T14:13:10-05:00*
G04 #@! TF.ProjectId,VGA,5647412e-6b69-4636-9164-5f7063625858,1.2*
G04 #@! TF.SameCoordinates,Original*
G04 #@! TF.FileFunction,Soldermask,Bot*
G04 #@! TF.FilePolarity,Negative*
%FSLAX46Y46*%
G04 Gerber Fmt 4.6, Leading zero omitted, Abs format (unit mm)*
G04 Created by KiCad (PCBNEW 5.1.10-88a1d61d58~88~ubuntu20.04.1) date 2021-04-26 14:13:10*
%MOMM*%
%LPD*%
G01*
G04 APERTURE LIST*
%ADD10C,6.102000*%
%ADD11O,1.802000X2.602000*%
%ADD12C,1.702000*%
G04 APERTURE END LIST*
D10*
X168148000Y-118872000D03*
X143256000Y-118872000D03*
D11*
X136652000Y-132080000D03*
X139192000Y-132080000D03*
X141732000Y-132080000D03*
X144272000Y-132080000D03*
X146812000Y-132080000D03*
X149352000Y-132080000D03*
X151892000Y-132080000D03*
X154432000Y-132080000D03*
X156972000Y-132080000D03*
X159512000Y-132080000D03*
X162052000Y-132080000D03*
X164592000Y-132080000D03*
X167132000Y-132080000D03*
X169672000Y-132080000D03*
X172212000Y-132080000D03*
X174752000Y-132080000D03*
G36*
G01*
X151981000Y-120612000D02*
X151981000Y-122212000D01*
G75*
G02*
X151930000Y-122263000I-51000J0D01*
G01*
X150330000Y-122263000D01*
G75*
G02*
X150279000Y-122212000I0J51000D01*
G01*
X150279000Y-120612000D01*
G75*
G02*
X150330000Y-120561000I51000J0D01*
G01*
X151930000Y-120561000D01*
G75*
G02*
X151981000Y-120612000I0J-51000D01*
G01*
G37*
D12*
X153420000Y-121412000D03*
X155710000Y-121412000D03*
X158000000Y-121412000D03*
X160290000Y-121412000D03*
X149985000Y-118872000D03*
X152275000Y-118872000D03*
X154565000Y-118872000D03*
X156855000Y-118872000D03*
X159145000Y-118872000D03*
X151130000Y-116332000D03*
X153420000Y-116332000D03*
X155710000Y-116332000D03*
X158000000Y-116332000D03*
X160290000Y-116332000D03*
M02*
