%!PS-Adobe-3.0
%%Creator: PCBNEW
%%CreationDate: Mon Apr 26 14:13:08 2021
%%Title: /home/uli/Documents/KiCad/Boards/VGA/gerber/VGA-PTH-drl_map.ps
%%Pages: 1
%%PageOrder: Ascend
%%BoundingBox: 0 0 596 842
%%DocumentMedia: A4 595 842 0 () ()
%%Orientation: Landscape
%%EndComments
%%BeginProlog
/line { newpath moveto lineto stroke } bind def
/cir0 { newpath 0 360 arc stroke } bind def
/cir1 { newpath 0 360 arc gsave fill grestore stroke } bind def
/cir2 { newpath 0 360 arc gsave fill grestore stroke } bind def
/arc0 { newpath arc stroke } bind def
/arc1 { newpath 4 index 4 index moveto arc closepath gsave fill
    grestore stroke } bind def
/arc2 { newpath 4 index 4 index moveto arc closepath gsave fill
    grestore stroke } bind def
/poly0 { stroke } bind def
/poly1 { closepath gsave fill grestore stroke } bind def
/poly2 { closepath gsave fill grestore stroke } bind def
/rect0 { rectstroke } bind def
/rect1 { rectfill } bind def
/rect2 { rectfill } bind def
/linemode0 { 0 setlinecap 0 setlinejoin 0 setlinewidth } bind def
/linemode1 { 1 setlinecap 1 setlinejoin } bind def
/dashedline { [200] 100 setdash } bind def
/solidline { [] 0 setdash } bind def
/phantomshow { moveto
    /KicadFont findfont 0.000001 scalefont setfont
    show } bind def
/textshow { gsave
    findfont exch scalefont setfont concat 1 scale 0 0 moveto show
    } bind def
/reencodefont {
  findfont dup length dict begin
  { 1 index /FID ne
    { def }
    { pop pop } ifelse
  } forall
  /Encoding ISOLatin1Encoding def
  currentdict
  end } bind def
/KicadFont /Helvetica reencodefont definefont pop
/KicadFont-Bold /Helvetica-Bold reencodefont definefont pop
/KicadFont-Oblique /Helvetica-Oblique reencodefont definefont pop
/KicadFont-BoldOblique /Helvetica-BoldOblique reencodefont definefont pop
%%EndProlog
%%Page: 1 1
%%BeginPageSetup
gsave
0.0072 0.0072 scale
linemode1
82680 0 translate 90 rotate
150 setlinewidth
%%EndPageSetup
0 0 0 setrgbcolor
59.0551 setlinewidth
36715 54876 2250 -90 -0 arc0
0 0 0 setrgbcolor
36715 49626 3000 90 180 arc0
0 0 0 setrgbcolor
80215 54876 2250 180 270 arc0
0 0 0 setrgbcolor
newpath
33715 42126 moveto
33715 49626 lineto
stroke
0 0 0 setrgbcolor
80215 49626 3000 -0 90 arc0
0 0 0 setrgbcolor
newpath
83215 42126 moveto
83215 49626 lineto
stroke
0 0 0 setrgbcolor
41965 71376 3000 90 180 arc0
0 0 0 setrgbcolor
74965 71376 3000 -0 90 arc0
0 0 0 setrgbcolor
82465 42126 750 -90 -0 arc0
0 0 0 setrgbcolor
34465 42126 750 180 270 arc0
0 0 0 setrgbcolor
newpath
38965 71376 moveto
38965 54876 lineto
stroke
0 0 0 setrgbcolor
newpath
74965 74376 moveto
41965 74376 lineto
stroke
0 0 0 setrgbcolor
newpath
77965 54876 moveto
77965 71376 lineto
stroke
0 0 0 setrgbcolor
newpath
34465 41376 moveto
82465 41376 lineto
stroke
78.7394 setlinewidth
newpath
35524.4 44966.6 moveto
36705.6 43785.4 lineto
stroke
newpath
36705.6 44966.6 moveto
35524.4 43785.4 lineto
stroke
newpath
38524.4 44966.6 moveto
39705.6 43785.4 lineto
stroke
newpath
39705.6 44966.6 moveto
38524.4 43785.4 lineto
stroke
newpath
41524.4 44966.6 moveto
42705.6 43785.4 lineto
stroke
newpath
42705.6 44966.6 moveto
41524.4 43785.4 lineto
stroke
newpath
44524.4 44966.6 moveto
45705.6 43785.4 lineto
stroke
newpath
45705.6 44966.6 moveto
44524.4 43785.4 lineto
stroke
newpath
47524.4 44966.6 moveto
48705.6 43785.4 lineto
stroke
newpath
48705.6 44966.6 moveto
47524.4 43785.4 lineto
stroke
newpath
50524.4 44966.6 moveto
51705.6 43785.4 lineto
stroke
newpath
51705.6 44966.6 moveto
50524.4 43785.4 lineto
stroke
newpath
51272.1 60566.6 moveto
52453.2 59385.4 lineto
stroke
newpath
52453.2 60566.6 moveto
51272.1 59385.4 lineto
stroke
newpath
52624.4 63566.6 moveto
53805.6 62385.4 lineto
stroke
newpath
53805.6 63566.6 moveto
52624.4 62385.4 lineto
stroke
newpath
52624.4 57566.6 moveto
53805.6 56385.4 lineto
stroke
newpath
53805.6 57566.6 moveto
52624.4 56385.4 lineto
stroke
newpath
53524.4 44966.6 moveto
54705.6 43785.4 lineto
stroke
newpath
54705.6 44966.6 moveto
53524.4 43785.4 lineto
stroke
newpath
53976.8 60566.6 moveto
55157.9 59385.4 lineto
stroke
newpath
55157.9 60566.6 moveto
53976.8 59385.4 lineto
stroke
newpath
55329.2 63566.6 moveto
56510.3 62385.4 lineto
stroke
newpath
56510.3 63566.6 moveto
55329.2 62385.4 lineto
stroke
newpath
55329.2 57566.6 moveto
56510.3 56385.4 lineto
stroke
newpath
56510.3 57566.6 moveto
55329.2 56385.4 lineto
stroke
newpath
56524.4 44966.6 moveto
57705.6 43785.4 lineto
stroke
newpath
57705.6 44966.6 moveto
56524.4 43785.4 lineto
stroke
newpath
56681.5 60566.6 moveto
57862.6 59385.4 lineto
stroke
newpath
57862.6 60566.6 moveto
56681.5 59385.4 lineto
stroke
newpath
58033.9 63566.6 moveto
59215 62385.4 lineto
stroke
newpath
59215 63566.6 moveto
58033.9 62385.4 lineto
stroke
newpath
58033.9 57566.6 moveto
59215 56385.4 lineto
stroke
newpath
59215 57566.6 moveto
58033.9 56385.4 lineto
stroke
newpath
59386.3 60566.6 moveto
60567.4 59385.4 lineto
stroke
newpath
60567.4 60566.6 moveto
59386.3 59385.4 lineto
stroke
newpath
59524.4 44966.6 moveto
60705.6 43785.4 lineto
stroke
newpath
60705.6 44966.6 moveto
59524.4 43785.4 lineto
stroke
newpath
60738.6 63566.6 moveto
61919.7 62385.4 lineto
stroke
newpath
61919.7 63566.6 moveto
60738.6 62385.4 lineto
stroke
newpath
60738.6 57566.6 moveto
61919.7 56385.4 lineto
stroke
newpath
61919.7 57566.6 moveto
60738.6 56385.4 lineto
stroke
newpath
62091 60566.6 moveto
63272.1 59385.4 lineto
stroke
newpath
63272.1 60566.6 moveto
62091 59385.4 lineto
stroke
newpath
62524.4 44966.6 moveto
63705.6 43785.4 lineto
stroke
newpath
63705.6 44966.6 moveto
62524.4 43785.4 lineto
stroke
newpath
63443.3 63566.6 moveto
64624.4 62385.4 lineto
stroke
newpath
64624.4 63566.6 moveto
63443.3 62385.4 lineto
stroke
newpath
63443.3 57566.6 moveto
64624.4 56385.4 lineto
stroke
newpath
64624.4 57566.6 moveto
63443.3 56385.4 lineto
stroke
newpath
65524.4 44966.6 moveto
66705.6 43785.4 lineto
stroke
newpath
66705.6 44966.6 moveto
65524.4 43785.4 lineto
stroke
newpath
68524.4 44966.6 moveto
69705.6 43785.4 lineto
stroke
newpath
69705.6 44966.6 moveto
68524.4 43785.4 lineto
stroke
newpath
71524.4 44966.6 moveto
72705.6 43785.4 lineto
stroke
newpath
72705.6 44966.6 moveto
71524.4 43785.4 lineto
stroke
newpath
74524.4 44966.6 moveto
75705.6 43785.4 lineto
stroke
newpath
75705.6 44966.6 moveto
74524.4 43785.4 lineto
stroke
newpath
77524.4 44966.6 moveto
78705.6 43785.4 lineto
stroke
newpath
78705.6 44966.6 moveto
77524.4 43785.4 lineto
stroke
newpath
80524.4 44966.6 moveto
81705.6 43785.4 lineto
stroke
newpath
81705.6 44966.6 moveto
80524.4 43785.4 lineto
stroke
43915 59976 1771.65 cir0
73315 59976 1771.65 cir0
118.11 setlinewidth
0 0 0 setrgbcolor
0 0 0 setrgbcolor
newpath
34813.1 39513 moveto
34813.1 40694.1 lineto
35094.4 40694.1 lineto
35263.1 40637.8 lineto
35375.6 40525.3 lineto
35431.8 40412.8 lineto
35488.1 40187.9 lineto
35488.1 40019.1 lineto
35431.8 39794.2 lineto
35375.6 39681.7 lineto
35263.1 39569.2 lineto
35094.4 39513 lineto
34813.1 39513 lineto
stroke
newpath
35994.2 39513 moveto
35994.2 40300.4 lineto
stroke
newpath
35994.2 40075.4 moveto
36050.5 40187.9 lineto
36106.7 40244.1 lineto
36219.2 40300.4 lineto
36331.7 40300.4 lineto
stroke
newpath
36725.4 39513 moveto
36725.4 40300.4 lineto
stroke
newpath
36725.4 40694.1 moveto
36669.2 40637.8 lineto
36725.4 40581.6 lineto
36781.6 40637.8 lineto
36725.4 40694.1 lineto
36725.4 40581.6 lineto
stroke
newpath
37456.6 39513 moveto
37344.1 39569.2 lineto
37287.8 39681.7 lineto
37287.8 40694.1 lineto
stroke
newpath
38075.2 39513 moveto
37962.7 39569.2 lineto
37906.5 39681.7 lineto
37906.5 40694.1 lineto
stroke
newpath
39425.1 39513 moveto
39425.1 40694.1 lineto
39818.8 39850.4 lineto
40212.5 40694.1 lineto
40212.5 39513 lineto
stroke
newpath
41281.1 39513 moveto
41281.1 40131.6 lineto
41224.8 40244.1 lineto
41112.4 40300.4 lineto
40887.4 40300.4 lineto
40774.9 40244.1 lineto
stroke
newpath
41281.1 39569.2 moveto
41168.6 39513 lineto
40887.4 39513 lineto
40774.9 39569.2 lineto
40718.7 39681.7 lineto
40718.7 39794.2 lineto
40774.9 39906.7 lineto
40887.4 39962.9 lineto
41168.6 39962.9 lineto
41281.1 40019.1 lineto
stroke
newpath
41843.5 40300.4 moveto
41843.5 39119.2 lineto
stroke
newpath
41843.5 40244.1 moveto
41956 40300.4 lineto
42181 40300.4 lineto
42293.5 40244.1 lineto
42349.7 40187.9 lineto
42405.9 40075.4 lineto
42405.9 39737.9 lineto
42349.7 39625.4 lineto
42293.5 39569.2 lineto
42181 39513 lineto
41956 39513 lineto
41843.5 39569.2 lineto
stroke
newpath
42912.1 39625.4 moveto
42968.4 39569.2 lineto
42912.1 39513 lineto
42855.9 39569.2 lineto
42912.1 39625.4 lineto
42912.1 39513 lineto
stroke
newpath
42912.1 40244.1 moveto
42968.4 40187.9 lineto
42912.1 40131.6 lineto
42855.9 40187.9 lineto
42912.1 40244.1 lineto
42912.1 40131.6 lineto
stroke
newpath
32504.4 38157.5 moveto
33685.5 36976.4 lineto
stroke
newpath
33685.5 38157.5 moveto
32504.4 36976.4 lineto
stroke
0 0 0 setrgbcolor
0 0 0 setrgbcolor
newpath
35431.8 37032.6 moveto
34756.9 37032.6 lineto
stroke
newpath
35094.4 37032.6 moveto
35094.4 38213.7 lineto
34981.9 38045 lineto
34869.4 37932.5 lineto
34756.9 37876.3 lineto
stroke
newpath
35938 37145.1 moveto
35994.2 37088.9 lineto
35938 37032.6 lineto
35881.8 37088.9 lineto
35938 37145.1 lineto
35938 37032.6 lineto
stroke
newpath
36725.4 38213.7 moveto
36837.9 38213.7 lineto
36950.4 38157.5 lineto
37006.6 38101.3 lineto
37062.9 37988.8 lineto
37119.1 37763.8 lineto
37119.1 37482.6 lineto
37062.9 37257.6 lineto
37006.6 37145.1 lineto
36950.4 37088.9 lineto
36837.9 37032.6 lineto
36725.4 37032.6 lineto
36612.9 37088.9 lineto
36556.7 37145.1 lineto
36500.4 37257.6 lineto
36444.2 37482.6 lineto
36444.2 37763.8 lineto
36500.4 37988.8 lineto
36556.7 38101.3 lineto
36612.9 38157.5 lineto
36725.4 38213.7 lineto
stroke
newpath
37850.3 38213.7 moveto
37962.7 38213.7 lineto
38075.2 38157.5 lineto
38131.5 38101.3 lineto
38187.7 37988.8 lineto
38244 37763.8 lineto
38244 37482.6 lineto
38187.7 37257.6 lineto
38131.5 37145.1 lineto
38075.2 37088.9 lineto
37962.7 37032.6 lineto
37850.3 37032.6 lineto
37737.8 37088.9 lineto
37681.5 37145.1 lineto
37625.3 37257.6 lineto
37569 37482.6 lineto
37569 37763.8 lineto
37625.3 37988.8 lineto
37681.5 38101.3 lineto
37737.8 38157.5 lineto
37850.3 38213.7 lineto
stroke
newpath
38975.1 38213.7 moveto
39087.6 38213.7 lineto
39200.1 38157.5 lineto
39256.3 38101.3 lineto
39312.6 37988.8 lineto
39368.8 37763.8 lineto
39368.8 37482.6 lineto
39312.6 37257.6 lineto
39256.3 37145.1 lineto
39200.1 37088.9 lineto
39087.6 37032.6 lineto
38975.1 37032.6 lineto
38862.6 37088.9 lineto
38806.4 37145.1 lineto
38750.2 37257.6 lineto
38693.9 37482.6 lineto
38693.9 37763.8 lineto
38750.2 37988.8 lineto
38806.4 38101.3 lineto
38862.6 38157.5 lineto
38975.1 38213.7 lineto
stroke
newpath
39875 37032.6 moveto
39875 37820 lineto
stroke
newpath
39875 37707.6 moveto
39931.3 37763.8 lineto
40043.7 37820 lineto
40212.5 37820 lineto
40325 37763.8 lineto
40381.2 37651.3 lineto
40381.2 37032.6 lineto
stroke
newpath
40381.2 37651.3 moveto
40437.4 37763.8 lineto
40549.9 37820 lineto
40718.7 37820 lineto
40831.1 37763.8 lineto
40887.4 37651.3 lineto
40887.4 37032.6 lineto
stroke
newpath
41449.8 37032.6 moveto
41449.8 37820 lineto
stroke
newpath
41449.8 37707.6 moveto
41506.1 37763.8 lineto
41618.5 37820 lineto
41787.3 37820 lineto
41899.8 37763.8 lineto
41956 37651.3 lineto
41956 37032.6 lineto
stroke
newpath
41956 37651.3 moveto
42012.2 37763.8 lineto
42124.7 37820 lineto
42293.5 37820 lineto
42405.9 37763.8 lineto
42462.2 37651.3 lineto
42462.2 37032.6 lineto
stroke
newpath
44768.1 38270 moveto
43755.8 36751.4 lineto
stroke
newpath
46286.7 38213.7 moveto
46399.2 38213.7 lineto
46511.7 38157.5 lineto
46567.9 38101.3 lineto
46624.2 37988.8 lineto
46680.4 37763.8 lineto
46680.4 37482.6 lineto
46624.2 37257.6 lineto
46567.9 37145.1 lineto
46511.7 37088.9 lineto
46399.2 37032.6 lineto
46286.7 37032.6 lineto
46174.2 37088.9 lineto
46118 37145.1 lineto
46061.7 37257.6 lineto
46005.5 37482.6 lineto
46005.5 37763.8 lineto
46061.7 37988.8 lineto
46118 38101.3 lineto
46174.2 38157.5 lineto
46286.7 38213.7 lineto
stroke
newpath
47186.6 37145.1 moveto
47242.8 37088.9 lineto
47186.6 37032.6 lineto
47130.4 37088.9 lineto
47186.6 37145.1 lineto
47186.6 37032.6 lineto
stroke
newpath
47974 38213.7 moveto
48086.5 38213.7 lineto
48199 38157.5 lineto
48255.2 38101.3 lineto
48311.5 37988.8 lineto
48367.7 37763.8 lineto
48367.7 37482.6 lineto
48311.5 37257.6 lineto
48255.2 37145.1 lineto
48199 37088.9 lineto
48086.5 37032.6 lineto
47974 37032.6 lineto
47861.5 37088.9 lineto
47805.3 37145.1 lineto
47749 37257.6 lineto
47692.8 37482.6 lineto
47692.8 37763.8 lineto
47749 37988.8 lineto
47805.3 38101.3 lineto
47861.5 38157.5 lineto
47974 38213.7 lineto
stroke
newpath
48761.4 38213.7 moveto
49492.6 38213.7 lineto
49098.9 37763.8 lineto
49267.6 37763.8 lineto
49380.1 37707.6 lineto
49436.3 37651.3 lineto
49492.6 37538.8 lineto
49492.6 37257.6 lineto
49436.3 37145.1 lineto
49380.1 37088.9 lineto
49267.6 37032.6 lineto
48930.1 37032.6 lineto
48817.6 37088.9 lineto
48761.4 37145.1 lineto
stroke
newpath
50055 37032.6 moveto
50280 37032.6 lineto
50392.4 37088.9 lineto
50448.7 37145.1 lineto
50561.2 37313.9 lineto
50617.4 37538.8 lineto
50617.4 37988.8 lineto
50561.2 38101.3 lineto
50504.9 38157.5 lineto
50392.4 38213.7 lineto
50167.5 38213.7 lineto
50055 38157.5 lineto
49998.7 38101.3 lineto
49942.5 37988.8 lineto
49942.5 37707.6 lineto
49998.7 37595.1 lineto
50055 37538.8 lineto
50167.5 37482.6 lineto
50392.4 37482.6 lineto
50504.9 37538.8 lineto
50561.2 37595.1 lineto
50617.4 37707.6 lineto
stroke
newpath
51629.8 37820 moveto
51629.8 37032.6 lineto
stroke
newpath
51348.6 38270 moveto
51067.4 37426.3 lineto
51798.5 37426.3 lineto
stroke
newpath
52192.2 38213.7 moveto
52192.2 37988.8 lineto
stroke
newpath
52642.2 38213.7 moveto
52642.2 37988.8 lineto
stroke
newpath
54385.7 36582.7 moveto
54329.5 36638.9 lineto
54217 36807.7 lineto
54160.7 36920.1 lineto
54104.5 37088.9 lineto
54048.2 37370.1 lineto
54048.2 37595.1 lineto
54104.5 37876.3 lineto
54160.7 38045 lineto
54217 38157.5 lineto
54329.5 38326.2 lineto
54385.7 38382.5 lineto
stroke
newpath
54723.2 38213.7 moveto
55454.3 38213.7 lineto
55060.6 37763.8 lineto
55229.3 37763.8 lineto
55341.8 37707.6 lineto
55398.1 37651.3 lineto
55454.3 37538.8 lineto
55454.3 37257.6 lineto
55398.1 37145.1 lineto
55341.8 37088.9 lineto
55229.3 37032.6 lineto
54891.9 37032.6 lineto
54779.4 37088.9 lineto
54723.2 37145.1 lineto
stroke
newpath
56579.2 37032.6 moveto
55904.3 37032.6 lineto
stroke
newpath
56241.7 37032.6 moveto
56241.7 38213.7 lineto
56129.2 38045 lineto
56016.7 37932.5 lineto
55904.3 37876.3 lineto
stroke
newpath
57985.2 37032.6 moveto
57985.2 38213.7 lineto
stroke
newpath
58491.4 37032.6 moveto
58491.4 37651.3 lineto
58435.2 37763.8 lineto
58322.7 37820 lineto
58154 37820 lineto
58041.5 37763.8 lineto
57985.2 37707.6 lineto
stroke
newpath
59222.6 37032.6 moveto
59110.1 37088.9 lineto
59053.9 37145.1 lineto
58997.6 37257.6 lineto
58997.6 37595.1 lineto
59053.9 37707.6 lineto
59110.1 37763.8 lineto
59222.6 37820 lineto
59391.3 37820 lineto
59503.8 37763.8 lineto
59560 37707.6 lineto
59616.3 37595.1 lineto
59616.3 37257.6 lineto
59560 37145.1 lineto
59503.8 37088.9 lineto
59391.3 37032.6 lineto
59222.6 37032.6 lineto
stroke
newpath
60291.2 37032.6 moveto
60178.7 37088.9 lineto
60122.5 37201.4 lineto
60122.5 38213.7 lineto
stroke
newpath
61191.1 37088.9 moveto
61078.6 37032.6 lineto
60853.6 37032.6 lineto
60741.2 37088.9 lineto
60684.9 37201.4 lineto
60684.9 37651.3 lineto
60741.2 37763.8 lineto
60853.6 37820 lineto
61078.6 37820 lineto
61191.1 37763.8 lineto
61247.3 37651.3 lineto
61247.3 37538.8 lineto
60684.9 37426.3 lineto
stroke
newpath
61697.3 37088.9 moveto
61809.8 37032.6 lineto
62034.7 37032.6 lineto
62147.2 37088.9 lineto
62203.5 37201.4 lineto
62203.5 37257.6 lineto
62147.2 37370.1 lineto
62034.7 37426.3 lineto
61866 37426.3 lineto
61753.5 37482.6 lineto
61697.3 37595.1 lineto
61697.3 37651.3 lineto
61753.5 37763.8 lineto
61866 37820 lineto
62034.7 37820 lineto
62147.2 37763.8 lineto
stroke
newpath
62597.2 36582.7 moveto
62653.4 36638.9 lineto
62765.9 36807.7 lineto
62822.1 36920.1 lineto
62878.4 37088.9 lineto
62934.6 37370.1 lineto
62934.6 37595.1 lineto
62878.4 37876.3 lineto
62822.1 38045 lineto
62765.9 38157.5 lineto
62653.4 38326.2 lineto
62597.2 38382.5 lineto
stroke
31913.8 35874 1771.65 cir0
0 0 0 setrgbcolor
0 0 0 setrgbcolor
newpath
34700.7 36520.8 moveto
35431.8 36520.8 lineto
35038.1 36070.9 lineto
35206.8 36070.9 lineto
35319.3 36014.6 lineto
35375.6 35958.4 lineto
35431.8 35845.9 lineto
35431.8 35564.7 lineto
35375.6 35452.2 lineto
35319.3 35396 lineto
35206.8 35339.7 lineto
34869.4 35339.7 lineto
34756.9 35396 lineto
34700.7 35452.2 lineto
stroke
newpath
35938 35452.2 moveto
35994.2 35396 lineto
35938 35339.7 lineto
35881.8 35396 lineto
35938 35452.2 lineto
35938 35339.7 lineto
stroke
newpath
36725.4 36520.8 moveto
36837.9 36520.8 lineto
36950.4 36464.6 lineto
37006.6 36408.3 lineto
37062.9 36295.9 lineto
37119.1 36070.9 lineto
37119.1 35789.7 lineto
37062.9 35564.7 lineto
37006.6 35452.2 lineto
36950.4 35396 lineto
36837.9 35339.7 lineto
36725.4 35339.7 lineto
36612.9 35396 lineto
36556.7 35452.2 lineto
36500.4 35564.7 lineto
36444.2 35789.7 lineto
36444.2 36070.9 lineto
36500.4 36295.9 lineto
36556.7 36408.3 lineto
36612.9 36464.6 lineto
36725.4 36520.8 lineto
stroke
newpath
37850.3 36520.8 moveto
37962.7 36520.8 lineto
38075.2 36464.6 lineto
38131.5 36408.3 lineto
38187.7 36295.9 lineto
38244 36070.9 lineto
38244 35789.7 lineto
38187.7 35564.7 lineto
38131.5 35452.2 lineto
38075.2 35396 lineto
37962.7 35339.7 lineto
37850.3 35339.7 lineto
37737.8 35396 lineto
37681.5 35452.2 lineto
37625.3 35564.7 lineto
37569 35789.7 lineto
37569 36070.9 lineto
37625.3 36295.9 lineto
37681.5 36408.3 lineto
37737.8 36464.6 lineto
37850.3 36520.8 lineto
stroke
newpath
38975.1 36520.8 moveto
39087.6 36520.8 lineto
39200.1 36464.6 lineto
39256.3 36408.3 lineto
39312.6 36295.9 lineto
39368.8 36070.9 lineto
39368.8 35789.7 lineto
39312.6 35564.7 lineto
39256.3 35452.2 lineto
39200.1 35396 lineto
39087.6 35339.7 lineto
38975.1 35339.7 lineto
38862.6 35396 lineto
38806.4 35452.2 lineto
38750.2 35564.7 lineto
38693.9 35789.7 lineto
38693.9 36070.9 lineto
38750.2 36295.9 lineto
38806.4 36408.3 lineto
38862.6 36464.6 lineto
38975.1 36520.8 lineto
stroke
newpath
39875 35339.7 moveto
39875 36127.1 lineto
stroke
newpath
39875 36014.6 moveto
39931.3 36070.9 lineto
40043.7 36127.1 lineto
40212.5 36127.1 lineto
40325 36070.9 lineto
40381.2 35958.4 lineto
40381.2 35339.7 lineto
stroke
newpath
40381.2 35958.4 moveto
40437.4 36070.9 lineto
40549.9 36127.1 lineto
40718.7 36127.1 lineto
40831.1 36070.9 lineto
40887.4 35958.4 lineto
40887.4 35339.7 lineto
stroke
newpath
41449.8 35339.7 moveto
41449.8 36127.1 lineto
stroke
newpath
41449.8 36014.6 moveto
41506.1 36070.9 lineto
41618.5 36127.1 lineto
41787.3 36127.1 lineto
41899.8 36070.9 lineto
41956 35958.4 lineto
41956 35339.7 lineto
stroke
newpath
41956 35958.4 moveto
42012.2 36070.9 lineto
42124.7 36127.1 lineto
42293.5 36127.1 lineto
42405.9 36070.9 lineto
42462.2 35958.4 lineto
42462.2 35339.7 lineto
stroke
newpath
44768.1 36577.1 moveto
43755.8 35058.5 lineto
stroke
newpath
46286.7 36520.8 moveto
46399.2 36520.8 lineto
46511.7 36464.6 lineto
46567.9 36408.3 lineto
46624.2 36295.9 lineto
46680.4 36070.9 lineto
46680.4 35789.7 lineto
46624.2 35564.7 lineto
46567.9 35452.2 lineto
46511.7 35396 lineto
46399.2 35339.7 lineto
46286.7 35339.7 lineto
46174.2 35396 lineto
46118 35452.2 lineto
46061.7 35564.7 lineto
46005.5 35789.7 lineto
46005.5 36070.9 lineto
46061.7 36295.9 lineto
46118 36408.3 lineto
46174.2 36464.6 lineto
46286.7 36520.8 lineto
stroke
newpath
47186.6 35452.2 moveto
47242.8 35396 lineto
47186.6 35339.7 lineto
47130.4 35396 lineto
47186.6 35452.2 lineto
47186.6 35339.7 lineto
stroke
newpath
48367.7 35339.7 moveto
47692.8 35339.7 lineto
stroke
newpath
48030.2 35339.7 moveto
48030.2 36520.8 lineto
47917.8 36352.1 lineto
47805.3 36239.6 lineto
47692.8 36183.4 lineto
stroke
newpath
49492.6 35339.7 moveto
48817.6 35339.7 lineto
stroke
newpath
49155.1 35339.7 moveto
49155.1 36520.8 lineto
49042.6 36352.1 lineto
48930.1 36239.6 lineto
48817.6 36183.4 lineto
stroke
newpath
50167.5 36014.6 moveto
50055 36070.9 lineto
49998.7 36127.1 lineto
49942.5 36239.6 lineto
49942.5 36295.9 lineto
49998.7 36408.3 lineto
50055 36464.6 lineto
50167.5 36520.8 lineto
50392.4 36520.8 lineto
50504.9 36464.6 lineto
50561.2 36408.3 lineto
50617.4 36295.9 lineto
50617.4 36239.6 lineto
50561.2 36127.1 lineto
50504.9 36070.9 lineto
50392.4 36014.6 lineto
50167.5 36014.6 lineto
50055 35958.4 lineto
49998.7 35902.2 lineto
49942.5 35789.7 lineto
49942.5 35564.7 lineto
49998.7 35452.2 lineto
50055 35396 lineto
50167.5 35339.7 lineto
50392.4 35339.7 lineto
50504.9 35396 lineto
50561.2 35452.2 lineto
50617.4 35564.7 lineto
50617.4 35789.7 lineto
50561.2 35902.2 lineto
50504.9 35958.4 lineto
50392.4 36014.6 lineto
stroke
newpath
51742.3 35339.7 moveto
51067.4 35339.7 lineto
stroke
newpath
51404.8 35339.7 moveto
51404.8 36520.8 lineto
51292.3 36352.1 lineto
51179.8 36239.6 lineto
51067.4 36183.4 lineto
stroke
newpath
52192.2 36520.8 moveto
52192.2 36295.9 lineto
stroke
newpath
52642.2 36520.8 moveto
52642.2 36295.9 lineto
stroke
newpath
54385.7 34889.8 moveto
54329.5 34946 lineto
54217 35114.8 lineto
54160.7 35227.2 lineto
54104.5 35396 lineto
54048.2 35677.2 lineto
54048.2 35902.2 lineto
54104.5 36183.4 lineto
54160.7 36352.1 lineto
54217 36464.6 lineto
54329.5 36633.3 lineto
54385.7 36689.6 lineto
stroke
newpath
54779.4 36408.3 moveto
54835.6 36464.6 lineto
54948.1 36520.8 lineto
55229.3 36520.8 lineto
55341.8 36464.6 lineto
55398.1 36408.3 lineto
55454.3 36295.9 lineto
55454.3 36183.4 lineto
55398.1 36014.6 lineto
54723.2 35339.7 lineto
55454.3 35339.7 lineto
stroke
newpath
56860.4 35339.7 moveto
56860.4 36520.8 lineto
stroke
newpath
57366.6 35339.7 moveto
57366.6 35958.4 lineto
57310.3 36070.9 lineto
57197.8 36127.1 lineto
57029.1 36127.1 lineto
56916.6 36070.9 lineto
56860.4 36014.6 lineto
stroke
newpath
58097.7 35339.7 moveto
57985.2 35396 lineto
57929 35452.2 lineto
57872.8 35564.7 lineto
57872.8 35902.2 lineto
57929 36014.6 lineto
57985.2 36070.9 lineto
58097.7 36127.1 lineto
58266.5 36127.1 lineto
58378.9 36070.9 lineto
58435.2 36014.6 lineto
58491.4 35902.2 lineto
58491.4 35564.7 lineto
58435.2 35452.2 lineto
58378.9 35396 lineto
58266.5 35339.7 lineto
58097.7 35339.7 lineto
stroke
newpath
59166.3 35339.7 moveto
59053.9 35396 lineto
58997.6 35508.5 lineto
58997.6 36520.8 lineto
stroke
newpath
60066.2 35396 moveto
59953.8 35339.7 lineto
59728.8 35339.7 lineto
59616.3 35396 lineto
59560 35508.5 lineto
59560 35958.4 lineto
59616.3 36070.9 lineto
59728.8 36127.1 lineto
59953.8 36127.1 lineto
60066.2 36070.9 lineto
60122.5 35958.4 lineto
60122.5 35845.9 lineto
59560 35733.4 lineto
stroke
newpath
60572.4 35396 moveto
60684.9 35339.7 lineto
60909.9 35339.7 lineto
61022.4 35396 lineto
61078.6 35508.5 lineto
61078.6 35564.7 lineto
61022.4 35677.2 lineto
60909.9 35733.4 lineto
60741.2 35733.4 lineto
60628.7 35789.7 lineto
60572.4 35902.2 lineto
60572.4 35958.4 lineto
60628.7 36070.9 lineto
60741.2 36127.1 lineto
60909.9 36127.1 lineto
61022.4 36070.9 lineto
stroke
newpath
61472.3 34889.8 moveto
61528.6 34946 lineto
61641 35114.8 lineto
61697.3 35227.2 lineto
61753.5 35396 lineto
61809.8 35677.2 lineto
61809.8 35902.2 lineto
61753.5 36183.4 lineto
61697.3 36352.1 lineto
61641 36464.6 lineto
61528.6 36633.3 lineto
61472.3 36689.6 lineto
stroke
showpage
grestore
%%EOF
