M48
; DRILL file {KiCad 5.1.10-88a1d61d58~90~ubuntu20.04.1} date Thu Jul 15 20:02:17 2021
; FORMAT={-:-/ absolute / metric / decimal}
; #@! TF.CreationDate,2021-07-15T20:02:17-05:00
; #@! TF.GenerationSoftware,Kicad,Pcbnew,5.1.10-88a1d61d58~90~ubuntu20.04.1
; #@! TF.FileFunction,Plated,1,2,PTH
FMAT,2
METRIC
T1C1.000
T2C3.000
%
G90
G05
T1
X136.652Y-132.08
X139.192Y-132.08
X141.732Y-132.08
X144.272Y-132.08
X146.812Y-132.08
X149.352Y-132.08
X149.985Y-118.872
X151.13Y-116.332
X151.13Y-121.412
X151.892Y-132.08
X152.275Y-118.872
X153.42Y-116.332
X153.42Y-121.412
X154.432Y-132.08
X154.565Y-118.872
X155.71Y-116.332
X155.71Y-121.412
X156.855Y-118.872
X156.972Y-132.08
X158.0Y-116.332
X158.0Y-121.412
X159.145Y-118.872
X159.512Y-132.08
X160.29Y-116.332
X160.29Y-121.412
X162.052Y-132.08
X164.592Y-132.08
X167.132Y-132.08
X169.672Y-132.08
X172.212Y-132.08
X174.752Y-132.08
T2
X143.256Y-118.872
X168.148Y-118.872
T0
M30
